id,name,attack,strength,defense,magic,range,a_stab,a_slash,a_crush,a_magic,a_range,d_stab,d_slash,d_crush,d_magic,d_range,bonus_attack,bonus_strength,bonus_range_strength,bonus_mage_strength,immune_poison,immune_venom,hp
1,Aberrant spectre,1,1,90,105,1,0,0,0,0,0,20,20,20,0,15,0,0,0,0,0,0,90
3,Deviant spectre,1,1,90,205,1,0,0,0,0,0,80,80,80,0,85,0,0,0,0,0,0,190
4,Abyssal demon,97,67,135,1,1,0,0,0,0,0,20,20,20,0,20,0,0,0,0,0,0,150
5,Abyssal Sire,180,136,250,200,1,0,0,0,0,0,40,60,50,20,60,65,0,0,0,1,1,400
6,Ankou,70,70,60,1,1,0,0,0,0,0,0,0,0,0,0,0,0,0,0,0,0,60
7,Banshee,22,15,22,1,1,0,0,0,0,0,5,5,5,0,5,0,0,0,0,0,0,22
8,Twisted Banshee,75,85,50,1,1,0,0,0,0,0,15,15,15,0,15,0,0,0,0,0,0,109
9,Basilisk,30,45,75,1,1,0,0,0,0,0,20,20,0,20,0,0,0,0,0,0,0,75
10,Bat,5,5,5,1,1,0,0,0,0,0,2,2,5,2,0,0,0,0,0,0,0,8,
11,Giant Bat,22,22,22,1,1,0,0,0,0,0,10,10,12,10,8,0,0,0,0,0,0,32
12,Albino bat,57,57,30,1,1,0,0,0,0,0,0,0,0,0,0,0,0,0,0,0,0,33
13,Deathwing,70,70,70,1,1,0,0,0,0,0,0,0,0,0,0,0,0,0,0,0,0,80
14,Black bear,15,16,13,0,0,0,0,0,0,0,0,0,0,0,0,0,0,0,0,0,0,25
15,Grizzly bear,17,18,15,1,1,0,0,0,0,0,0,0,0,0,0,0,0,0,0,0,0,27
16,Callisto,350,370,440,1,1,0,0,0,0,0,135,104,175,900,230,0,0,0,0,0,0,255
17,Bird,5,5,5,5,1,0,0,0,0,0,0,0,0,0,0,0,0,0,0,0,0,5
18,Chicken,1,1,1,1,1,0,0,0,0,0,-42,-42,-42,-42,-42,-47,-42,0,0,0,0,3
19,Mounted terrorbird gnome,25,25,25,0,0,0,0,0,0,0,16,16,18,15,10,0,0,0,0,0,0,36
20,Terrorbird,23,23,19,1,1,0,0,0,0,0,0,0,0,0,0,0,0,0,0,0,0,34
21,Vulture,40,40,10,1,1,0,0,0,0,0,0,0,0,0,0,0,0,0,0,0,0,10
22,Black demon,145,152,148,1,1,0,0,0,0,0,0,0,0,-10,0,0,0,0,0,0,0,157
23,Demonic gorilla,205,195,200,195,195,0,0,0,40,43,0,0,0,50,0,43,29,29,0,0,0,275
24,Skotizo,240,250,200,280,1,0,0,0,0,0,80,80,80,130,130,160,31,0,0,1,1,450
25,Black dragon,200,200,200,100,1,0,0,0,0,0,50,70,70,60,50,0,0,0,0,0,0,190
26,Baby black dragon,70,70,70,1,1,0,0,0,0,0,30,50,50,40,30,0,0,0,0,0,0,80
27,King black dragon,240,240,240,240,1,0,0,0,0,0,70,90,90,80,70,0,0,0,0,0,0,240
28,Brutal black dragon,330,210,258,250,0,0,0,0,0,0,50,70,70,60,50,0,20,0,0,1,1,315
29,Bloodveld,75,45,30,1,1,0,0,0,0,0,0,0,0,0,0,0,0,0,0,0,0,120
30,Mutated bloodveld,110,115,30,1,1,0,0,0,0,0,0,0,0,0,0,0,0,0,0,0,0,170
31,Blue dragon,95,95,95,1,1,0,0,0,0,0,50,70,70,60,50,0,0,0,0,0,0,105
32,Baby blue dragon,40,40,40,1,1,0,0,0,0,0,30,50,50,40,30,0,0,0,0,0,0,50
33,Brutal blue dragon,298,198,198,198,0,0,0,0,0,0,50,70,70,60,50,0,0,0,0,1,1,245
34,Vorkath,560,308,214,150,308,0,0,0,150,78,26,108,108,240,26,16,0,0,0,1,1,750
35,Brine rat,70,79,40,1,1,0,0,0,0,0,0,0,0,0,0,0,0,0,0,0,0,50
36,Bronze dragon,112,112,112,100,1,0,0,0,0,0,50,70,70,30,90,0,0,0,0,0,0,122
37,Catablepon,45,40,40,60,1,0,0,0,0,0,40,30,20,20,40,0,0,0,0,0,0,40
38,Cave bug,6,5,6,1,1,0,0,0,0,0,10,10,5,5,10,0,0,0,0,0,0,5
39,Cave crawler,22,18,18,1,1,0,0,0,0,0,10,10,5,5,10,0,0,0,0,0,0,22
40,Cave horror,80,77,62,80,1,0,0,0,0,0,0,0,0,0,0,0,0,0,0,0,0,55
41,Cave slime,13,13,35,13,1,0,0,0,0,0,0,0,0,0,0,0,0,0,0,0,0,25
42,Cockatrice,22,37,37,1,1,0,0,0,0,0,10,10,0,10,0,0,0,0,0,0,0,37
43,Cow,1,1,1,1,1,0,0,0,0,0,-21,-21,-21,-21,-21,0,0,0,0,1,1,8
44,Crawling hand,8,4,4,1,1,0,0,0,0,0,0,0,0,0,0,0,0,0,0,0,0,16
45,Crocodile,53,54,54,1,1,0,0,0,0,0,0,0,0,0,0,0,0,0,0,0,0,62
46,Dagannoth fledgeling,50,50,50,1,1,0,0,0,0,0,0,0,0,0,0,0,0,0,0,0,0,100
47,Dagannoth spawn,50,35,25,1,1,0,0,0,0,0,0,0,0,0,0,0,0,0,0,0,0,35
48,Dagannoth prime,255,255,255,255,0,0,0,0,0,0,255,255,255,255,10,0,0,0,0,0,0,255
49,Dagannoth rex,255,255,255,0,255,0,0,0,0,0,255,255,255,10,255,0,0,0,0,0,0,255
50,Dagannoth supreme,255,255,128,255,255,0,0,0,0,0,10,10,10,255,550,0,0,0,0,0,0,255
51,Dagannoth,68,70,50,1,1,0,0,0,0,0,0,0,0,0,0,0,0,0,0,0,0,70
52,Dark beast,140,160,120,160,1,0,0,0,0,0,30,40,100,90,100,0,0,0,0,0,0,220
53,Guard dog,35,36,37,1,1,0,0,0,0,0,0,0,0,0,0,0,0,0,0,0,0,49
54,Wild dog,53,54,54,1,1,0,0,0,0,0,0,0,0,0,0,0,0,0,0,0,0,62
55,Jackal,17,18,15,1,1,0,0,0,0,0,0,0,0,0,0,0,0,0,0,0,0,27
56,Dust devil,105,70,40,1,1,0,0,0,0,0,0,0,0,0,0,0,0,0,0,0,0,105
57,Black guard,20,20,20,1,1,0,0,0,0,0,3,4,4,2,3,5,7,0,0,0,0,30
58,Chaos dwarf,38,42,28,1,1,0,0,0,0,0,40,34,25,10,35,13,9,0,0,0,0,61
59,Earth warrior,42,42,42,1,1,0,0,0,0,0,30,40,20,10,30,0,0,0,0,0,0,54
60,Elf warrior,95,95,80,1,0,0,0,0,0,0,50,70,70,60,50,0,0,0,0,0,0,105
61,Elf archer,10,10,80,1,90,0,0,0,0,0,50,70,70,60,50,0,0,0,0,0,0,105
62,Mourner (lv 108),95,95,80,1,0,0,0,0,0,0,50,70,70,60,50,0,0,0,0,0,0,105
63,Fever spider,60,30,40,1,1,1,1,1,1,1,20,15,10,15,15,0,0,0,0,0,0,40
64,Fire giant,65,65,65,1,1,0,0,0,0,0,0,3,2,0,0,29,31,0,0,0,0,111
65,Flesh crawler,60,2,10,1,1,0,0,0,0,0,15,15,15,15,15,0,0,0,0,0,0,25
66,Ancient wyvern,150,150,150,90,90,0,0,0,0,0,70,70,70,170,120,0,0,0,0,0,0,300
67,Spitting wyvern,125,80,90,125,125,0,0,0,0,0,70,70,70,140,120,0,0,0,0,0,0,200
68,Taloned wyvern,120,110,90,90,90,0,0,0,0,0,70,70,70,140,120,0,0,0,0,0,0,200
69,Long-tailed wyvern,125,120,90,90,90,0,0,0,0,0,70,70,70,140,120,0,0,0,0,0,0,200
70,Gargoyle,75,105,107,1,1,0,0,0,0,0,20,20,0,20,20,0,0,0,0,0,0,105
71,Ghost,13,13,18,1,1,0,0,0,0,0,5,5,5,-5,5,0,0,0,0,0,0,25
72,Tortured soul,52,62,38,1,1,0,0,0,0,0,0,0,0,0,0,0,0,0,0,0,0,51
73,Ghoul,30,40,30,1,1,0,0,0,0,0,0,0,0,0,0,0,0,0,0,0,0,50
74,Goblin,1,1,1,1,1,0,0,0,0,0,-15,-15,-15,-15,-15,0,0,0,0,0,0,5
75,Sergeant Strongstack,124,118,125,50,50,0,0,0,0,0,0,0,0,0,0,0,14,0,0,0,0,128
76,Sergeant Grimspike,80,80,132,50,150,0,0,0,0,20,0,0,0,0,0,0,0,20,0,0,0,142
77,Sergeant Steelwill,80,50,150,150,1,0,0,0,0,0,0,0,0,0,0,0,6,0,0,0,0,127
78,Gorak (lv 145),130,130,131,1,1,0,0,0,0,0,0,0,0,0,0,0,0,0,0,0,0,112
79,Gorak (lv 149),133,126,135,1,1,0,0,0,0,0,0,0,0,0,0,0,0,0,0,0,0,128
80,Greater demon (lv 92),76,78,81,1,1,0,0,0,0,0,0,0,0,-10,0,0,0,0,0,0,0,89
81,Greater demon (lv 100),90,70,80,1,1,0,0,0,0,0,0,0,0,-10,0,0,0,0,0,0,0,115
82,Greater demon (lv 101),90,90,50,1,1,0,0,0,0,0,0,0,0,-10,0,0,0,0,0,0,0,120
83,Greater demon (lv 113),120,90,50,1,1,0,0,0,0,0,0,0,0,-10,0,0,0,0,0,0,0,130
84,K'ril Tsutsaroth,340,300,270,200,1,0,0,0,0,0,80,80,80,130,80,160,31,0,0,1,1,255
85,Tstanon Karlak,124,118,125,50,50,0,0,0,0,0,0,0,0,-5,0,0,14,0,0,0,0,142
86,Green dragon,68,68,68,68,1,0,0,0,0,0,20,40,40,30,20,0,0,0,0,0,0,75
87,Baby green dragon,40,40,40,1,1,0,0,0,0,0,30,50,50,40,30,0,0,0,0,0,0,52
88,Brutal green dragon,268,168,168,168,0,0,0,0,0,0,50,70,70,60,50,0,0,0,0,0,0,175
89,Harpie bug swarm,54,46,32,1,1,0,0,0,0,0,10,5,10,5,10,0,0,0,0,0,0,25
90,Hellhound,105,104,102,1,1,0,0,0,0,0,0,0,0,0,0,0,0,0,0,0,0,116
91,Cerberus,220,220,100,220,220,0,50,0,50,50,50,100,25,100,100,50,0,0,0,1,1,600
92,Hill giant,18,22,26,1,1,0,0,0,0,0,0,0,0,0,0,18,16,0,0,0,0,35
93,Cyclops (lv 56),65,65,35,1,1,0,0,0,0,0,0,0,0,0,0,0,0,0,0,0,0,75
94,Cyclops (lv 76),65,65,35,1,1,0,0,0,0,0,0,0,0,0,0,0,0,0,0,0,0,100
95,Cyclops (lv 81),60,70,48,1,1,0,0,0,0,0,0,0,0,0,0,22,0,0,0,0,0,110
96,Cyclops (lv 106),95,75,55,1,1,0,0,0,0,0,0,0,0,0,0,0,0,0,0,0,0,150
97,Hobgoblin,22,24,24,1,1,0,0,0,0,0,0,0,0,0,0,0,0,0,0,0,0,29
98,Hydra,1,1,100,210,210,0,0,0,0,0,160,160,160,160,0,0,0,0,0,0,0,300
99,Alchemical Hydra,100,100,100,260,260,0,0,0,45,45,75,150,150,150,45,0,0,20,20,1,1,1100
100,Icefiend,10,10,12,1,1,0,0,0,0,0,0,0,0,0,0,0,0,0,0,0,0,15
101,Ice giant (lv 53),40,40,40,1,1,0,0,0,0,0,0,3,2,0,0,29,31,0,0,0,0,70
102,Ice giant (lv 67),40,60,40,1,1,0,0,0,0,0,0,3,2,0,0,29,31,0,0,0,0,100
103,Ice warrior,47,47,47,1,1,0,0,0,0,0,30,40,20,10,30,0,0,0,0,0,0,59
104,Infernal Mage,1,1,60,75,1,0,0,0,0,0,0,0,0,40,0,0,0,0,0,0,0,60
105,Iron dragon,165,165,165,100,1,0,0,0,0,0,50,70,70,30,90,0,0,0,0,0,0,165
106,Iron dragon (Kourend),185,185,185,120,1,0,0,0,0,0,50,70,70,30,90,0,0,0,0,0,0,195
107,Jelly,45,45,120,45,1,0,0,0,0,0,0,0,0,0,0,0,0,0,0,0,0,75
108,Warped Jelly,95,90,70,95,1,0,0,0,0,0,0,0,0,0,0,0,0,0,0,0,0,140
109,Jungle horror,70,70,55,1,1,0,0,0,0,0,0,0,0,0,0,0,0,0,0,0,0,45
110,Lizardman (lv 53),43,43,43,1,43,0,0,0,0,22,-10,25,0,0,0,22,20,20,0,1,1,60
111,Lizardman (lv 62),53,53,52,1,1,0,0,0,0,28,-10,20,5,0,0,28,25,25,0,1,1,60
112,Lizardman brute,65,65,65,1,1,0,0,0,0,34,-10,30,10,0,0,34,30,30,0,1,1,60
113,Lizardman shaman,120,120,140,130,120,0,0,0,0,45,-10,40,30,50,0,45,38,38,0,1,1,150
114,Lizard,38,36,35,1,1,0,0,0,0,0,0,0,0,0,0,0,0,0,0,0,0,40
115,Small Lizard,10,10,10,1,1,0,0,0,0,0,0,5,5,0,0,0,0,0,0,0,0,15
116,Sulphur Lizard,50,45,30,1,1,0,0,0,0,0,15,25,25,0,15,0,0,0,0,0,0,50
117,Kalphite Queen,300,300,300,150,1,0,0,0,0,0,50,50,10,100,100,0,0,0,0,0,0,255
118,Kalphite Worker,20,20,20,1,1,0,0,0,0,0,5,5,1,10,10,0,0,0,0,0,0,40
119,Kalphite Soldier,70,70,70,1,1,0,0,0,0,0,25,25,5,50,50,0,0,0,0,0,0,90
120,Kalphite Guardian,110,110,110,1,1,0,0,0,0,0,25,25,5,50,50,0,0,0,0,0,0,171
121,Killerwatt,50,50,40,67,67,0,0,0,0,0,10,10,10,20,20,30,0,0,0,0,0,51
122,Kurask,67,105,105,1,1,0,0,0,0,0,0,20,20,0,0,0,0,0,0,1,1,97
123,Lesser demon,68,70,71,1,1,0,0,0,0,0,0,0,0,-10,0,0,0,0,0,0,0,81
124,Lesser demon (Kourend purple),80,70,71,1,1,0,0,0,0,0,0,0,0,-10,0,0,0,0,0,0,0,87
125,Lesser demon (Kourend green),80,70,85,1,1,0,0,0,0,0,0,0,0,-10,0,0,0,0,0,0,0,98
126,Lesser demon (Wilderness),68,85,71,1,1,0,0,0,0,0,0,0,0,-10,0,0,0,0,0,0,0,110
127,Mithril dragon,268,268,268,168,168,0,0,0,0,0,50,100,70,30,90,0,0,0,0,1,1,254
128,Minotaur (lv 12),12,10,10,1,1,0,0,0,0,0,-21,-21,-21,-21,-21,0,0,0,0,0,0,10
129,Minotaur (lv 27),23,25,25,1,1,0,0,0,0,0,-10,-10,-10,-21,-10,0,0,0,0,0,0,22
130,Mogre,58,55,48,1,1,0,0,0,0,0,0,0,0,0,0,22,20,0,0,1,1,48
131,Molanisk,40,40,50,0,1,0,0,0,0,0,45,45,35,30,55,0,0,0,0,0,0,52
132,Monkey Guard,130,130,200,130,1,0,0,0,0,0,0,0,0,0,0,50,0,0,0,0,0,130
133,Monkey Archer,80,80,80,1,110,0,0,0,0,0,0,0,0,0,0,0,0,0,0,0,0,50
134,Monkey Zombie,100,60,60,60,1,0,0,0,0,0,0,0,0,0,0,15,0,0,0,0,0,60,
135,Moss giant,30,30,30,1,1,0,0,0,0,0,0,0,0,0,0,33,31,0,0,0,0,60
136,Nechryael,97,97,105,1,1,0,0,0,0,0,20,20,20,0,20,0,0,0,0,0,0,105
138,Greater Nechryael,197,197,85,1,1,0,0,0,0,0,50,50,50,0,50,0,0,0,0,0,0,205
139,Ogre,43,43,43,1,1,0,0,0,0,0,0,0,0,0,0,22,20,0,0,0,0,60
140,Ogre (lv 58),46,48,43,1,1,0,0,0,0,0,0,0,0,0,0,22,21,0,0,0,0,70
141,Ogre chieftain,75,71,75,1,1,0,0,0,0,0,10,21,16,0,0,5,7,0,0,0,0,60
142,Enclave guard,70,70,70,1,1,0,0,0,0,0,13,24,19,0,0,9,13,0,0,0,0,80
143,Otherworldly being,56,56,46,1,1,0,0,0,0,0,15,10,20,-5,15,0,0,0,0,0,0,66
144,Pyrefiend,52,30,22,1,1,0,0,0,0,0,10,10,10,0,10,0,0,0,0,0,0,45
145,Pyrefiend (GWD),60,36,22,1,1,0,0,0,0,0,10,10,10,0,10,0,0,0,0,0,0,48
146,Red dragon,130,130,130,1,1,0,0,0,0,0,50,70,70,60,50,0,0,0,0,0,0,140
147,Baby red dragon,40,40,40,1,1,0,0,0,0,0,30,50,50,40,30,0,0,0,0,0,0,50
148,Brutal red dragon,310,210,198,250,0,0,0,0,0,0,50,70,70,60,50,0,0,0,0,1,1,285
149,Rockslug,22,27,27,1,1,0,0,0,0,0,0,0,0,0,0,0,0,0,0,0,0,27
150,Locust rider (ranger),105,90,50,1,90,0,0,0,0,80,50,90,50,34,66,0,0,80,0,0,0,90
151,Locust rider (lancer),100,90,90,1,1,0,0,0,0,0,90,90,40,0,0,0,0,0,0,0,0,90
152,Scarab mage,90,90,90,70,1,0,0,0,70,0,40,90,90,34,0,0,0,0,0,0,0,50,
153,Scarab swarm,255,5,30,1,1,0,0,0,0,0,90,90,5,90,90,0,0,0,0,0,0,25
154,Scorpion,11,12,11,1,1,0,0,0,0,0,5,15,15,0,5,0,0,0,0,0,0,17
155,Scorpion (SoS lv 37),31,32,31,1,1,0,0,0,0,0,35,15,15,30,35,0,0,0,0,0,0,37
156,Scorpion (SoS lv 59),50,52,50,1,1,0,0,0,0,0,5,15,15,0,55,0,0,0,0,0,0,55
157,Sea Snake Hatchling,60,55,50,1,0,0,0,0,0,0,0,0,0,0,0,0,0,0,0,0,0,50
158,Sea Snake Young,90,70,70,1,1,0,0,0,0,0,0,0,0,0,0,0,0,0,0,0,0,85
159,Giant Sea Snake,170,90,160,1,130,0,0,0,0,0,0,0,0,0,0,0,0,0,0,1,1,100
160,Shade (SoS),130,130,130,1,1,0,0,0,0,0,0,0,0,0,0,0,0,0,0,0,0,170
161,Shade (Kourend),130,136,100,50,50,0,0,0,0,0,0,0,0,0,0,0,0,0,0,0,0,115
162,Loar Shade,45,30,26,0,0,0,0,0,0,0,0,0,0,0,0,0,0,0,0,0,0,38
163,Phrin Shade,64,47,42,0,0,0,0,0,0,0,0,0,0,0,0,0,0,0,0,1,0,56
164,Riyl Shade,88,55,60,0,0,0,0,0,0,0,0,0,0,0,0,0,0,0,0,0,0,76
165,Asyn Shade,102,84,70,0,0,0,0,0,0,0,0,0,0,0,0,0,0,0,0,0,0,90
166,Fiyr Shade,120,100,85,0,0,0,0,0,0,0,0,0,0,0,0,0,0,0,0,0,0,110
167,Shadow warrior,36,36,33,0,0,0,0,0,0,0,43,31,19,15,38,20,26,0,0,0,0,67
168,Skeletal Wyvern,125,116,120,125,120,0,0,0,0,0,140,90,90,80,140,0,0,0,0,0,0,210
169,Vet'ion,430,430,395,300,1,0,0,0,0,0,201,200,-10,250,270,0,0,0,0,0,0,255
170,Smoke devil,140,130,275,1,195,0,0,0,0,0,0,0,0,600,44,0,0,0,0,1,1,185
171,Thermonuclear smoke devil,230,220,360,1,310,0,0,0,0,0,11,4,9,800,900,0,0,0,0,1,1,240
172,Nuclear smoke devil,240,230,390,1,280,0,0,0,0,0,0,0,0,850,80,0,0,0,0,1,1,240
173,Spider,1,1,1,1,1,0,0,0,0,0,-53,-53,-53,-53,-53,-35,-58,0,0,0,0,2
174,Spider (SoS),21,21,21,1,1,0,0,0,0,0,53,53,53,53,53,35,58,0,0,0,0,22
175,Giant Spider (lv 2),1,1,1,1,1,0,0,0,0,0,-10,-10,-10,-10,-10,-10,-10,0,0,0,0,5
176,Giant Spider (lv 27),20,24,21,1,1,0,0,0,0,0,0,0,0,0,0,0,0,0,0,0,0,32
177,Giant Spider (lv 50),41,51,31,1,1,0,0,0,0,0,10,10,10,10,10,10,10,0,0,0,0,50
178,Shadow spider,44,42,44,1,1,0,0,0,0,0,20,15,10,15,15,0,0,0,0,0,0,55
179,Jungle spider,35,37,35,1,1,0,0,0,0,0,20,20,10,17,20,0,0,0,0,0,0,50
180,Deadly red spider,30,25,30,1,1,0,0,0,0,0,15,16,7,12,16,0,0,0,0,0,0,35
181,Poison spider,50,52,58,1,1,0,0,0,0,0,20,17,10,14,14,0,0,0,0,0,0,64
182,Blessed spider,35,35,35,1,1,0,0,0,0,0,15,16,7,12,16,0,0,0,0,0,0,32
183,Kalrag,78,78,78,1,1,0,0,0,0,0,20,17,12,13,13,0,0,0,0,0,0,78
184,Crypt spider,45,47,45,1,1,0,0,0,0,0,20,20,10,17,20,0,0,0,0,0,0,45
185,Steel dragon,215,215,215,100,1,0,0,0,0,0,50,70,70,30,90,0,0,0,0,0,0,210
186,Steel dragon (Kourend),235,235,235,130,1,0,0,0,0,0,50,70,70,30,90,0,0,0,0,0,0,250
187,Suqah,95,95,95,1,1,0,0,0,0,0,50,70,70,90,50,0,0,0,0,0,0,106
188,Terror dog (lv 100),100,90,74,1,1,0,0,0,0,0,0,0,0,0,0,0,10,0,0,0,0,82
189,Terror dog (lv 110),110,104,78,1,1,0,0,0,0,0,0,0,0,0,0,0,20,0,0,0,0,87
190,Mountain troll (lv 69),40,75,40,0,0,0,0,0,0,0,0,0,10,200,200,20,20,0,0,0,0,90
191,Mountain troll (lv 71),40,90,25,0,0,0,0,0,0,0,0,0,10,200,200,20,20,0,0,0,0,90
192,Ice troll grunt,100,100,60,1,1,0,0,0,0,0,30,60,30,0,0,60,60,0,0,0,0,80
193,Ice troll runt,60,70,70,1,1,0,0,0,0,0,30,60,30,0,0,60,60,0,0,0,0,60
194,Ice troll (male/female),80,80,40,1,1,0,0,0,0,0,30,60,30,0,0,60,60,0,0,0,0,80
195,Turoth (lv 83),53,83,83,1,1,0,0,0,0,0,0,20,20,0,0,0,0,0,0,0,0,76
196,Turoth (lv 85),54,84,84,1,1,0,0,0,0,0,0,20,20,0,0,0,0,0,0,0,0,77
197,Turoth (lv 87),56,86,86,1,1,0,0,0,0,0,0,20,20,0,0,0,0,0,0,0,0,79
198,Turoth (lv 89),58,88,88,1,1,0,0,0,0,0,0,20,20,0,0,0,0,0,0,0,0,81
199,Vampyre Juvenile,40,30,30,1,1,0,0,0,0,0,0,0,0,0,0,0,0,0,0,1,1,60
200,Vampyre Juvinate,50,37,30,1,1,0,0,0,0,0,0,0,0,0,0,0,0,0,0,1,1,60
201,Vyrewatch (lv 87),80,75,75,75,1,0,0,0,0,0,0,0,0,0,0,0,0,0,0,0,1,75
202,Vyrewatch (lv 105),105,86,85,105,105,0,0,0,0,0,0,0,0,0,0,0,0,0,0,0,1,90
203,Vyrewatch (lv 110),110,96,85,110,110,0,0,0,0,0,0,0,0,0,0,0,0,0,0,0,1,90
204,Vyrewatch (lv 120),120,106,85,120,120,0,0,0,0,0,0,0,0,0,0,0,0,0,0,0,1,105
205,Vyrewatch (lv 125),120,116,85,120,120,0,0,0,0,0,0,0,0,0,0,0,0,0,0,0,1,110
206,Feral Vampyre (lv 61),55,60,55,40,1,0,0,0,0,0,0,0,0,0,0,0,0,0,0,0,0,40
207,Feral Vampyre (lv 72),65,70,65,50,1,0,0,0,0,0,0,0,0,0,0,0,0,0,0,0,0,50
208,Feral Vampyre (lv 77),65,66,81,1,1,0,0,0,0,0,0,0,0,0,0,0,0,0,0,0,0,60
209,Feral Vampyre (lv 100),105,76,30,0,0,0,0,0,0,0,0,0,0,0,0,0,0,0,0,0,0,135
210,Feral Vampyre (lv 130),120,116,30,0,0,0,0,0,0,0,0,0,0,0,0,0,0,0,0,0,0,185
211,Wall beast,30,30,16,1,1,0,0,0,0,0,0,0,0,0,0,0,0,0,0,1,1,105
212,Waterfiend,0,0,128,105,105,0,0,0,0,0,100,100,10,100,100,0,0,0,0,1,1,130
213,Werewolf,70,70,70,1,1,0,0,0,0,0,0,0,0,60,0,0,0,0,0,0,0,100
214,Werewolf (GWD),77,76,85,1,1,0,0,0,0,0,-21,-21,-21,-21,-21,0,0,0,0,0,0,92
215,Wolf (lv 11),10,10,10,1,1,0,0,0,0,0,0,0,0,0,0,0,0,0,0,0,0,10
216,Wolf (lv 14),10,15,10,1,1,0,0,0,0,0,0,0,0,0,0,0,0,0,0,0,0,15
217,Wolf (lv 25),20,16,22,1,1,0,0,0,0,0,0,0,0,0,0,0,0,0,0,0,0,34
218,Wolf (lv 64),50,55,52,1,1,0,0,0,0,0,0,0,0,0,0,0,0,0,0,0,0,69
219,Big Wolf,60,61,62,1,1,0,0,0,0,0,0,0,0,0,0,0,0,0,0,0,0,74
220,Dire Wolf,75,75,75,1,1,0,0,0,0,0,0,0,0,0,0,0,0,0,0,0,0,85
221,Jungle Wolf,50,55,52,1,1,0,0,0,0,0,0,0,0,0,0,0,0,0,0,0,0,69
222,Desert Wolf,20,21,22,0,0,0,0,0,0,0,0,0,0,0,0,0,0,0,0,0,0,34
223,Ice Wolf (lv 96),100,90,70,1,1,0,0,0,0,0,0,0,0,0,0,0,0,0,0,0,0,70
224,Ice Wolf (lv 132),150,150,70,0,0,0,0,0,0,0,0,0,0,0,0,0,0,0,0,0,0,70
225,Zygomite (lv 74),65,65,65,65,65,0,0,0,0,0,10,10,10,20,20,30,0,0,0,0,0,65
226,Zygomite (lv 86),75,75,75,75,75,0,0,0,0,0,10,10,10,20,20,30,0,0,0,0,0,75
227,Ancient Zygomite,80,80,80,80,80,50,0,0,0,0,20,20,20,30,30,30,0,0,0,0,0,150